1 10 20
100 200 125
201 210 89
900 1000 174
1273 4611 238
3691 1646 217
1368 6525 262
3381 6709 262
4685 9200 262
9153 8112 247
4731 3525 238
8200 6790 257
1627 3117 217
2023 5657 238
5053 7352 262
7972 2282 262
3324 7110 262
5729 8311 262
8859 4625 262
1578 4568 238
914 5750 238
2694 3760 238
1217 7936 262
5202 9147 262
7958 5034 262
1895 5193 238
9291 2902 262
673 8029 262
2340 1657 183
8582 7447 252
8121 6316 257
153 536 144
315 2657 209
6291 2846 262
5985 4050 236
8445 4463 262
3813 6546 262
8526 677 262
6512 6754 244
3707 8692 262
7779 2403 262
384 2757 209
1435 3378 217
5178 2465 238
2358 3394 217
4554 8507 262
6830 8377 257
2453 4409 238
7130 8297 252
7983 4672 262
4513 748 238
3632 815 217
1100 4422 238
3136 3600 199
5832 4732 236
3023 6950 262
7931 49 262
2208 6220 262
8663 557 262
4286 4043 202
2787 6322 262
9484 6557 260
2309 4200 238
2119 1881 175
1419 2143 180
59 7688 262
8944 7822 252
9419 7453 260
8133 5765 262
2426 5916 238
6060 3073 238
2136 7180 262
1316 2314 183
4899 3315 238
8661 6304 257
306 2390 183
8701 2805 262
9135 7015 252
4015 6652 262
6494 4844 262
2994 2697 217
1254 6497 262
9631 95 262
9090 6201 257
335 3510 217
3692 9616 262
5423 1669 238
1818 2452 183
6629 8755 257
754 2772 209
2823 1714 209
4633 4011 215
7597 9152 252
9696 569 262
5597 6773 262
4011 4978 215
7210 4177 262
4197 7623 262
9901 660 262
967 2291 183
2683 8093 262
8727 2912 262
5207 1908 238
8678 6504 257
9239 2991 262
3512 9634 262
3523 3178 181
6873 4680 262
998 5057 238
1392 487 182
7241 6132 262
7388 2167 262
9235 1030 262
3469 4179 238
4411 9138 262
3403 6870 262
8239 6605 257
524 8307 262
1417 2992 217
4779 8676 262
7478 5403 262
9100 6564 257
8689 6967 252
6429 6084 262
3085 8507 262
4699 9843 262
9521 6453 260
2742 8230 262
8368 1745 262
3793 6914 262
1261 5391 238
4741 6437 262
3411 5403 238
8841 1880 262
3081 6817 262
3123 2032 217
1587 4882 238
6501 3235 262
1173 8055 262
4779 3029 238
2448 5985 238
9001 2634 262
8908 3707 262
8411 149 262
1898 520 182
1074 14 179
5987 2537 238
2166 1100 182
2226 8689 262
3993 1058 238
6925 6186 244
2859 5923 238
6594 3447 262
8887 5594 262
4500 4500 47
1 1 1
999999 999999 259
