..............
----------------------------------------------------------------------
Ran 14 tests in 0.026s

OK
Name             Stmts   Miss Branch BrPart  Cover   Missing
------------------------------------------------------------
Collatz.py          33      0     12      0   100%
TestCollatz.py      62      0      0      0   100%
------------------------------------------------------------
TOTAL               95      0     12      0   100%
